5
800 3000 0 0 0
1 -20 1 1 1
1 -20 -1 1 1
1 -20 -1 -1 1
1 -20 1 -1 1

1
5
800 3000 0 0 0
1 -20 1 1 1
1 -20 -1 1 1
1 -20 -1 -1 1
1 -20 1 -1 1


2
3
1 -200 3 0 0
1 -200 1 0 0
800 3000 0 0 0